simulation/qsim/U-LALA.msim.vcd
$comment
	File created using the following command:
		vcd file U-LALA.msim.vcd -direction
$end
$date
	Sun Mar 10 13:27:40 2024
$end
$version
	ModelSim Version 10.1d
$end
$timescale
	1ps
$end
$scope module five_bits_adder_vlg_vec_tst $end
$var reg 5 ! a [4:0] $end
$var reg 5 " b [4:0] $end
$var reg 1 # enable $end
$var wire 1 $ overflow $end
$var wire 1 % s [4] $end
$var wire 1 & s [3] $end
$var wire 1 ' s [2] $end
$var wire 1 ( s [1] $end
$var wire 1 ) s [0] $end
$var wire 1 * sampler $end
$scope module i1 $end
$var wire 1 + gnd $end
$var wire 1 , vcc $end
$var wire 1 - unknown $end
$var tri1 1 . devclrn $end
$var tri1 1 / devpor $end
$var tri1 1 0 devoe $end
$var wire 1 1 soma1|s~0_combout $end
$var wire 1 2 enable~combout $end
$var wire 1 3 enable~clkctrl_outclk $end
$var wire 1 4 soma1|s~combout $end
$var wire 1 5 s[0]$latch~combout $end
$var wire 1 6 soma1|c_out~0_combout $end
$var wire 1 7 soma1|c_out~combout $end
$var wire 1 8 soma2|s~0_combout $end
$var wire 1 9 soma2|s~combout $end
$var wire 1 : s[1]$latch~combout $end
$var wire 1 ; soma2|c_out~0_combout $end
$var wire 1 < soma2|c_out~combout $end
$var wire 1 = soma3|s~0_combout $end
$var wire 1 > soma3|s~combout $end
$var wire 1 ? s[2]$latch~combout $end
$var wire 1 @ soma3|c_out~0_combout $end
$var wire 1 A soma3|c_out~combout $end
$var wire 1 B soma4|s~0_combout $end
$var wire 1 C soma4|s~combout $end
$var wire 1 D s[3]$latch~combout $end
$var wire 1 E s~0_combout $end
$var wire 1 F s~1_combout $end
$var wire 1 G s[4]$latch~combout $end
$var wire 1 H soma4|c_out~0_combout $end
$var wire 1 I soma4|c_out~combout $end
$var wire 1 J overflow~0_combout $end
$var wire 1 K overflow$latch~combout $end
$var wire 1 L b~combout [4] $end
$var wire 1 M b~combout [3] $end
$var wire 1 N b~combout [2] $end
$var wire 1 O b~combout [1] $end
$var wire 1 P b~combout [0] $end
$var wire 1 Q a~combout [4] $end
$var wire 1 R a~combout [3] $end
$var wire 1 S a~combout [2] $end
$var wire 1 T a~combout [1] $end
$var wire 1 U a~combout [0] $end
$upscope $end
$upscope $end
$enddefinitions $end
#0
$dumpvars
b0 !
b0 "
1#
0$
0)
0(
0'
0&
0%
x*
0+
1,
x-
1.
1/
10
01
12
13
04
05
06
07
08
09
0:
0;
0<
0=
0>
0?
0@
0A
0B
0C
0D
0E
0F
0G
0H
0I
0J
0K
0P
0O
0N
0M
0L
0U
0T
0S
0R
0Q
$end
#10000
b10 !
b10000 "
b11000 "
b11100 "
b11110 "
1O
1N
1M
1L
1T
0*
1;
1=
1B
1<
1>
1C
1@
0=
1E
1?
1D
1A
0>
1F
1'
1&
1H
0B
0?
1G
1I
0C
0'
1%
0F
0E
0D
0G
0&
0%
#90000
b0 !
b1110 "
b110 "
b10 "
b0 "
0O
0N
0M
0L
0T
1*
0;
0@
1=
0H
1B
1J
0<
0A
1>
0I
1C
1K
0=
0B
1E
1?
0J
1D
1$
0>
0C
0K
1'
1&
0E
0?
0D
0$
0'
0&
#100000
b1000 !
b1100 !
b1101 !
b1 "
b1111 !
1P
1U
1T
1S
1R
0*
16
18
1=
1B
17
19
1>
1C
1;
08
1E
1:
1?
1D
1<
09
1(
1'
1&
1@
0=
0:
1A
0>
0(
1H
0B
0?
1I
0C
0'
1J
0E
0D
1K
0&
1$
#200000
b111 !
b11 !
b10 !
b0 "
b0 !
0P
0U
0T
0S
0R
1*
06
0;
18
0@
1=
0H
1B
07
0<
19
0A
1>
0I
1C
08
0=
1E
1:
0B
1?
0J
1D
09
0>
0C
0K
1(
1'
1&
0E
0:
0?
0D
0$
0(
0'
0&
#210000
b10000 !
b100 "
b10100 !
1N
1S
1Q
0*
1@
1A
1B
1C
1E
1D
1F
1&
1G
1%
#310000
b100 !
b0 "
b0 !
0N
0S
0Q
1*
0@
0F
0A
0G
0B
0%
0C
0E
0D
0&
#320000
b1 !
b1 "
b101 "
b101 !
1P
1N
1U
1S
0*
16
1@
17
1A
18
1B
19
1C
1E
1:
1D
1(
1&
#430000
b100 !
b100 "
b0 "
b0 !
0P
0N
0U
0S
1*
06
0@
07
0A
08
0B
09
0C
0E
0:
0D
0(
0&
#440000
b10000 "
b1000 !
b1010 !
b11010 !
b11011 !
b10001 "
b11111 !
1U
1T
1S
1R
1Q
1P
1L
0*
16
18
1=
1B
17
19
1>
1C
1;
08
1E
1:
1?
1D
1<
09
1F
1(
1'
1&
1@
0=
0:
1G
1A
0>
0(
1%
1H
0B
0?
1I
0C
0'
1J
0E
0D
1K
0F
0&
0G
1$
0%
#570000
b1 "
b10111 !
b10101 !
b101 !
b100 !
b0 "
b0 !
0U
0T
0S
0R
0Q
0P
0L
1*
06
0;
18
0@
1=
0H
1B
07
0<
19
0A
1>
0I
1C
08
0=
1E
1:
0B
1?
0J
1D
09
0>
0C
0K
1(
1'
1&
0E
0:
0?
0D
0$
0(
0'
0&
