simulation/qsim/U-LALA.msim.vcd
$comment
	File created using the following command:
		vcd file U-LALA.msim.vcd -direction
$end
$date
	Mon Mar 11 00:22:32 2024
$end
$version
	ModelSim Version 10.1d
$end
$timescale
	1ps
$end
$scope module square_root_vlg_vec_tst $end
$var reg 5 ! a [4:0] $end
$var reg 1 " enable $end
$var wire 1 # overflow $end
$var wire 1 $ s [4] $end
$var wire 1 % s [3] $end
$var wire 1 & s [2] $end
$var wire 1 ' s [1] $end
$var wire 1 ( s [0] $end
$var wire 1 ) sampler $end
$scope module i1 $end
$var wire 1 * gnd $end
$var wire 1 + vcc $end
$var wire 1 , unknown $end
$var tri1 1 - devclrn $end
$var tri1 1 . devpor $end
$var tri1 1 / devoe $end
$var wire 1 0 s~0_combout $end
$var wire 1 1 s~1_combout $end
$var wire 1 2 Mux0~0_combout $end
$var wire 1 3 enable~combout $end
$var wire 1 4 s~2_combout $end
$var wire 1 5 Mux2~0_combout $end
$var wire 1 6 overflow~0_combout $end
$var wire 1 7 a~combout [4] $end
$var wire 1 8 a~combout [3] $end
$var wire 1 9 a~combout [2] $end
$var wire 1 : a~combout [1] $end
$var wire 1 ; a~combout [0] $end
$upscope $end
$upscope $end
$enddefinitions $end
#0
$dumpvars
b0 !
1"
0#
0(
0'
0&
0%
0$
x)
0*
1+
x,
1-
1.
1/
00
01
02
13
04
05
06
0;
0:
09
08
07
$end
#10000
b10 !
1:
0)
15
16
1#
#90000
b0 !
0:
1)
05
06
0#
#100000
b1000 !
b1100 !
b1101 !
b1111 !
1;
1:
19
18
0)
15
16
1#
#200000
b111 !
b11 !
b10 !
b0 !
0;
0:
09
08
1)
05
06
0#
#210000
b10000 !
b10100 !
19
17
0)
12
16
1#
#310000
b100 !
b0 !
09
07
1)
02
06
14
04
0#
1'
0'
#320000
b1 !
b101 !
1;
19
0)
15
10
16
1#
#430000
b100 !
b0 !
0;
09
1)
05
00
11
06
01
1(
0#
0(
#440000
b1000 !
b1010 !
b11010 !
b11011 !
b11111 !
1;
1:
19
18
17
0)
15
16
1#
#570000
b10111 !
b10101 !
b101 !
b100 !
b0 !
0;
0:
09
08
07
1)
05
06
0#
#660000
b100 !
19
0)
12
14
1'
#840000
b0 !
09
1)
02
04
0'
